OpenApp 1
CloseApp 1
LoginOK 1
LoginNOK 1
LoginAdmin 1
LoginEnter 1
S_OpenStudyResult 1
A_AddClassroom 1
A_UpdateClassRoom 1
A_DeleteClassroom 1
A_AddStudyResult 1
A_UpdateStudyResult 1
A_DeleteStudyResult 1
A_AddCourse 1
A_UpdateCourse 1
A_DeleteCourse 1
